…
Using variable names from `code_bk.txt'


```r
colnames(data) <-(c("id","nearc","nearc4","nearc4a","nearc4b","ed76","ed66  ","age76","daded ","nodaded","momed","nomomed","weight","momdad14 ","sinmom14","step14","reg661","reg662","reg663","reg66","reg665","reg666","reg667","reg668","reg669","south66","work76","work78","lwage7","lwage78","famed","black","smsa76r","smsa78r","reg76r","reg78r","reg80r","smsa66r","wage76","wage78","wage80","noint78","noint80","enroll76","enroll78","enroll80","kww","iq","marsta76","marsta78","marsta80","libcrd14"))

data %>% mutate_if(is_character,as.numeric)
```

```
## # A tibble: 3,613 x 52
##       id nearc nearc4 nearc4a nearc4b  ed76 `ed66  ` age76 `daded ` nodaded
##    <int> <int>  <int>   <int>   <int> <int>    <int> <int>    <dbl>   <int>
##  1     2     0      0       0       0     7        5    29     9.94       1
##  2     3     0      0       0       0    12       11    27     8          0
##  3     4     0      0       0       0    12       12    34    14          0
##  4     5     1      1       1       0    11       11    27    11          0
##  5     6     1      1       1       0    12       12    34     8          0
##  6     7     1      1       1       0    12       11    26     9          0
##  7     8     1      1       1       0    18       16    33    14          0
##  8     9     1      1       1       0    14       13    29    14          0
##  9    10     1      1       1       0    12       12    28    12          0
## 10    11     1      1       1       0    12       12    29    12          0
## # ... with 3,603 more rows, and 42 more variables: momed <dbl>, nomomed <int>,
## #   weight <int>, momdad14  <int>, sinmom14 <int>, step14 <int>, reg661 <int>,
## #   reg662 <int>, reg663 <int>, reg66 <int>, reg665 <int>, reg666 <int>,
## #   reg667 <int>, reg668 <int>, reg669 <int>, south66 <int>, work76 <int>,
## #   work78 <int>, lwage7 <dbl>, lwage78 <dbl>, famed <int>, black <int>,
## #   smsa76r <int>, smsa78r <dbl>, reg76r <int>, reg78r <dbl>, reg80r <dbl>,
## #   smsa66r <int>, wage76 <dbl>, wage78 <dbl>, wage80 <dbl>, noint78 <int>,
## #   noint80 <int>, enroll76 <int>, enroll78 <dbl>, enroll80 <dbl>, kww <dbl>,
## #   iq <dbl>, marsta76 <dbl>, marsta78 <dbl>, marsta80 <dbl>, libcrd14 <dbl>
```
